1 10 20
100 200 125
201 210 89
900 1000 174
883403 883408 233
774951 774958 194
746598 746600 150
659733 659743 155
79548 79550 121
146742 146743 189
823028 823031 145
484599 484608 276
88154 88164 196
710381 710389 150
982186 982236 321
188185 188201 179
238679 238774 244
648854 648924 204
838195 838292 207
986743 986803 246
578223 578295 341
671803 671858 261
555718 555764 359
550063 550085 191
404570 405366 343
28314 28344 228
490409 490780 320
581817 581903 297
323457 323909 291
380058 380623 379
273907 274720 332
777246 777637 393
437183 437374 387
845055 845570 401
