323773 445325 449
582811 381751 470
984059 857342 507
948275 603379 525
805163 382742 509
940249 124221 525
490982 350764 449
232548 900760 525
69126 488881 449
268240 515862 470
912684 193156 525
579354 535132 452
258624 122940 443
999131 751063 525
465494 963760 525
643865 114327 509
997307 939696 458
952422 998746 458
310324 506442 449
814830 947198 525
828100 660413 504
896708 895042 370
365581 101921 443
867252 645411 525
531 556071 470
271574 10037 443
615201 701806 509
863520 792058 525
827164 629058 504
935083 473952 525
769319 638803 504
326249 340341 366
876487 202443 525
440008 431699 400
982206 747067 525
946564 487454 525
282665 530501 470
2516 682235 509
516712 472947 470
401347 860289 525
378734 649300 509
916167 176696 525
98492 570151 470
844306 464187 525
934751 360864 525
977298 933546 507
496571 99770 449
287024 757063 509
222086 160609 386
362178 961845 525
118882 235394 443
840976 938293 476
480558 354564 449
89290 132474 354
96542 970376 525
680636 435716 509
775269 459819 509
761916 477620 509
802397 517117 509
551298 744553 509
20319 795208 509
381852 703662 509
986336 489961 525
481438 140019 449
757572 687170 504
553480 249040 470
135511 559485 470
626050 290229 470
84765 960167 525
